{
  "extends": [
    "config:base"
  ],
  "packageRules": [
    {
      "updateTypes": ["digest"],
      "automerge": true
    }
  ],
  "pinDigests": true,
  "prCreation": "not-pending",
  "unpublishSafe": true
}
